ScPoProgramming - Tidying, Visualising and Summarising Data - Tasks
…
4. Which state had the highest average Trump vote share for polls which had at least a sample size of 2,000? (Hint: you’ll have to use filter, group_by, summarise and arrange. To obtain ranking in descending order check arrange’s help page.)

polls_us_election_2016 %>%
    filter(samplesize >= 2000) %>%
    group_by(state) %>%
    summarise(mean_trump = mean(rawpoll_trump)) %>%
    arrange(desc(mean_trump))

# A tibble: 26 × 2
   state          mean_trump
   <fct>               <dbl>
 1 Alabama              62.5
 2 Missouri             48.5
 3 Indiana              47  
 4 Texas                46.0
 5 South Carolina       45.5
 6 Georgia              45.3
 7 Kansas               44  
 8 New Mexico           44  
 9 Florida              44.0
10 Ohio                 43.9
# ℹ 16 more rows
…
